<svg xmlns="http://www.w3.org/2000/svg" width="19" height="17" viewBox="0 0 19 17">
  <g fill="none" fill-rule="evenodd">
    <path fill="#E2E5E7" d="M4.07142857,-9.09612663e-13 C3.325,-9.09612663e-13 2.71428571,0.61875 2.71428571,1.375 L2.71428571,15.625 C2.71428571,16.38125 3.325,17 4.07142857,17 L17.6428571,17 C18.3892857,17 19,16.38125 19,15.625 L19,5.5 L13.5714286,-9.09612663e-13 L4.07142857,-9.09612663e-13 Z"/>
    <path fill="#B0B7BD" d="M14.9285714,5.5 L19,5.5 L13.5714286,0 L13.5714286,4.125 C13.5714286,4.88125 14.1821429,5.5 14.9285714,5.5 Z"/>
    <polygon fill="#CAD1D8" points="19 9.625 14.929 5.5 19 5.5"/>
    <path fill="#3C7DD0" d="M16.2857143,12.875 C16.2857143,13.253125 15.9803571,13.5625 15.6071429,13.5625 L0.678571429,13.5625 C0.305357143,13.5625 0,13.253125 0,12.875 L0,6 C0,5.621875 0.305357143,5.3125 0.678571429,5.3125 L15.6071429,5.3125 C15.9803571,5.3125 16.2857143,5.621875 16.2857143,6 L16.2857143,12.875 Z"/>
    <g fill="#FFF" transform="translate(2.163 7.547)">
      <path fill-rule="nonzero" d="M.406125 3.953125C.226982143 3.953125.0315535714 3.8534375.0315535714 3.612125L.0315535714.4901875C.0315535714.2921875.226982143.1491875.406125.1491875L1.64858929.1491875C4.12808929.1491875 4.073125 3.953125 1.69676786 3.953125L.406125 3.953125zM.748125.8195L.748125 3.282125 1.64858929 3.282125C3.113625 3.282125 3.17808929.8195 1.64858929.8195L.748125.8195zM6.14955357 4.008125C5.14594643 4.052125 4.10366071 3.375625 4.10366071 2.0288125 4.10366071.6765 5.14526786.0116875 6.14955357.0116875 7.098875.0605 8.091625.726 8.091625 2.0288125 8.091625 3.3323125 7.098875 4.008125 6.14955357 4.008125zM6.08983929.7266875C5.48183929.7266875 4.82023214 1.1611875 4.82023214 2.0295 4.82023214 2.893 5.48251786 3.333 6.08983929 3.333 6.714125 3.333 7.38116071 2.893 7.38116071 2.0295 7.38116071 1.1605 6.714125.7266875 6.08983929.7266875z"/>
      <path d="M8.73016071,2.0233125 C8.73016071,0.9625 9.38701786,0.0501875 10.6349107,0.0501875 C11.1071964,0.0501875 11.4817679,0.1931875 11.877375,0.5396875 C12.0239464,0.6765 12.0402321,0.9185 11.8936607,1.0725 C11.7470893,1.2038125 11.5245179,1.188 11.3942321,1.056 C11.1723393,0.8195 10.9443393,0.7541875 10.6349107,0.7541875 C9.79958929,0.7541875 9.39855357,1.3536875 9.39855357,2.024 C9.39855357,2.706 9.79416071,3.3323125 10.6349107,3.3323125 C10.9443393,3.3323125 11.2320536,3.205125 11.4817679,2.9803125 C11.649375,2.8483125 11.8828036,2.913625 11.9805179,3.0463125 C12.067375,3.1673125 12.110125,3.3708125 11.9208036,3.562625 C11.5408036,3.9208125 11.0854821,3.9923125 10.6342321,3.9923125 C9.321875,3.9923125 8.73016071,3.084125 8.73016071,2.0233125 Z"/>
    </g>
    <path fill="#CAD1D8" d="M15.6071429,13.5625 L2.71428571,13.5625 L2.71428571,14.25 L15.6071429,14.25 C15.9803571,14.25 16.2857143,13.940625 16.2857143,13.5625 L16.2857143,12.875 C16.2857143,13.253125 15.9803571,13.5625 15.6071429,13.5625 Z"/>
  </g>
</svg>
